Country, Used_percentage
US, 86.82384161941381
Spain, 86.52142338416849
Italy, 86.38197631690377
Germany, 86.37314504107135
France, 86.4781020807058
Iran, 85.27261200338124
United Kingdom, 85.22677860170106
Turkey, 86.9563408871585
Switzerland, 86.22659365916311
Belgium, 87.14936416661514
Netherlands, 85.87770803806438
Canada, 86.41496960904934
Austria, 86.97256018638365
Portugal, 85.84947095228588
Brazil, 86.05181965201234
Israel, 85.14360968267904
Sweden, 85.44945951071496
Russia, 85.19221018235085
Australia, 88.30919302394325
Norway, 85.91367278366504
Ireland, 85.88201047933242
Chile, 86.65043999251077
Denmark, 85.70970500213767
Czechia, 85.42046342098412
Poland, 85.54011027413218
Japan, 86.13713798977854
Romania, 85.17156862745098
Pakistan, 85.60385324374145
Malaysia, 85.00499833388871
Ecuador, 85.37739632630144
Luxembourg, 87.20930232558139
Saudi Arabia, 85.55355337757658
Indonesia, 86.02490610792647
Mexico, 85.51290054099043
Finland, 85.98598598598599
Thailand, 86.08666215301287
Panama, 86.20636864666258
United Arab Emirates, 85.58609085810431
Singapore, 85.78143360752057
Dominican Republic, 87.07687894434882
Greece, 85.06368197607101
South Africa, 87.44466088188419
Argentina, 86.69828364950317
Iceland, 86.0879243183083
Colombia, 86.07653296449978
India, 86.29492585262312
Peru, 85.7853742968412
Qatar, 86.33753449175927
Philippines, 87.33506126295947
Serbia, 87.001887001887
