Country, RPE_1, RPE_2, RPE_3, RPE_4, RPE_5
US, 8.14, 9.12, 10.86, 
Spain, 68.59, 73.49, 88.92, 
Italy, 18.34, 24.6, 30.57, 
Germany, 46.49, 69.05, 84.44, 
France, 12940.13, 14064.38, 12987.14, 
Iran, 8.44, 12.55, 17.8, 
United Kingdom, 11.45, 14.05, 14.3, 
Turkey, 18.35, 30.59, 34.64, 
Switzerland, 57.98, 83.23, 102.26, 
Belgium, 43.21, 46.97, 50.18, 
Netherlands, 30.65, 51.06, 59.87, 
Canada, 20.89, 16.27, 15.52, 
Austria, 52.92, 69.72, 84.26, 
Portugal, 65.05, 62.35, 65.3, 
Brazil, 24.75, 34.55, 45.02, 
Israel, 65.91, 70.02, 75.96, 
Sweden, 21.19, 19.5, 19.98, 
Russia, 12.03, 9.62, 13.21, 
Australia, 117.77, 156.0, 201.71, 
Norway, 84.73, 94.42, 85.98, 
Ireland, 40.76, 55.62, 57.38, 
Chile, 16.67, 17.66, 19.38, 
Denmark, 22.18, 31.41, 38.73, 
Czechia, 83.46, 91.97, 85.8, 
Poland, 20.7, 17.56, 18.84, 
Japan, 55.81, 62.43, 66.91, 
Romania, 24.59, 22.91, 21.24, 
Pakistan, 83.02, 67.57, 73.49, 
Malaysia, 46.11, 55.33, 70.6, 
Ecuador, 89.89, 4525.94, 10074.33, 
Luxembourg, 182.84, 224.96, 252.29, 
Saudi Arabia, 2.87, 5.03, 7.73, 
Indonesia, 25.28, 27.4, 27.51, 
Mexico, 25.89, 31.23, 31.34, 
Finland, 32.51, 31.91, 32.34, 
Thailand, 107.04, 107.38, 116.68, 
Panama, 36.81, 45.26, 33.81, 
United Arab Emirates, 11.49, 20.58, 22.17, 
Singapore, 33.19, 36.9, 32.09, 
Dominican Republic, 44.91, 36.81, 37.99, 
Greece, 116.73, 140.11, 189.56, 
South Africa, 42.03, 45.12, 46.03, 
Argentina, 23.77, 22.38, 22.66, 
Iceland, inf, inf, 245.49, 
Colombia, 17.8, 19.75, 21.92, 
India, 8.81, 10.61, 10.19, 
Peru, 53.06, 62.44, 48.59, 
Qatar, 16.88, 20.98, 24.16, 
Philippines, 27.68, 26.22, 24.29, 
Serbia, 19.15, 26.92, 26.33, 
