Country, RPE_1, RPE_2, RPE_3, RPE_4, RPE_5
US, 12.76, 17.75, 18.99, 
Spain, 62.64, 76.18, 73.79, 
Italy, 15.39, 21.74, 27.28, 
Germany, 32.31, 48.79, 65.78, 
France, 5533.04, 17964.33, 6757.31, 
Iran, 8.65, 13.61, 18.84, 
United Kingdom, 13.43, 19.35, 21.66, 
Turkey, 18.88, 28.82, 29.5, 
Switzerland, 39.55, 54.86, 69.48, 
Belgium, 35.08, 45.81, 41.41, 
Netherlands, 29.23, 47.06, 53.61, 
Canada, 23.52, 25.99, 31.22, 
Austria, 48.21, 72.23, 100.41, 
Portugal, 58.39, 51.16, 59.99, 
Brazil, 18.06, 18.93, 19.9, 
Israel, 46.16, 64.99, 102.42, 
Sweden, 27.07, 38.65, 48.52, 
Russia, 11.03, 6.7, 1000, 
Australia, 104.41, 136.96, 167.99, 
Norway, 65.59, 68.85, 78.86, 
Ireland, 52.49, 81.77, 105.74, 
Chile, 18.85, 20.04, 26.93, 
Denmark, 30.83, 47.43, 59.44, 
Czechia, 58.35, 75.56, 107.44, 
Poland, 30.04, 38.8, 44.2, 
Japan, 48.17, 62.73, 68.76, 
Romania, 24.88, 29.87, 29.5, 
Pakistan, 129.52, 42.88, 61.43, 
Malaysia, 48.0, 73.19, 99.93, 
Ecuador, 8059.36, 17141.08, 10504.46, 
Luxembourg, 99.95, 155.31, 202.29, 
Saudi Arabia, 6.42, 10.4, 17.1, 
Indonesia, 35.26, 32.81, 49.21, 
Mexico, 34.5, 44.28, 48.22, 
Finland, 55.49, 71.44, 90.98, 
Thailand, 40.25, 71.61, 97.44, 
Panama, 39.55, 48.2, 37.96, 
United Arab Emirates, 2.7, 3.43, 4.71, 
Singapore, 30.35, 47.1, 24.6, 
Dominican Republic, 54.19, 68.31, 68.67, 
Greece, 71.85, 102.91, 139.88, 
South Africa, 48.6, 58.36, 44.79, 
Argentina, 32.03, 43.34, 50.12, 
Iceland, inf, inf, 298.49, 
Colombia, 17.37, 22.87, 22.08, 
India, 13.58, 13.55, 11.54, 
Peru, 23.54, 28.05, 8.5, 
Qatar, 27.96, 41.05, 53.5, 
Philippines, 38.48, 51.4, 70.82, 
Serbia, 31.04, 43.35, 73.37, 
