counter,counter,data
0,0,0
1,1,0
2,2,0
3,3,0
4,4,0
5,5,0
6,6,0
7,7,0
8,8,0
9,9,0
10,10,0
11,11,0
12,12,0
13,13,0
14,14,0
15,15,0
16,16,0
17,17,0
18,18,0
19,19,0
20,20,0
21,21,0
22,22,0
23,23,0
24,24,0
25,25,0
26,26,0
27,27,0
28,28,0
29,29,0
30,30,0
31,31,0
32,32,0
33,33,1
34,34,0
35,35,0
36,36,0
37,37,0
38,38,0
39,39,0
40,40,0
41,41,0
42,42,0
43,43,0
44,44,0
45,45,0
46,46,3
47,47,0
48,48,1
49,49,2
50,50,0
51,51,0
52,52,4
53,53,5
54,54,5
55,55,1
56,56,0
57,57,0
58,58,2
59,59,0
60,60,16
61,61,0
62,62,34
63,63,10
64,64,10
65,65,16
66,66,0
67,67,10
68,68,50
69,69,4
70,70,63
71,71,36
72,72,8
73,73,18
74,74,50
75,75,18
76,76,56
77,77,21
78,78,40
79,79,37
80,80,34
81,81,52
82,82,58
83,83,49
84,84,70
85,85,56
86,86,66
87,87,27
88,88,63
89,89,30
90,90,66
91,91,84
92,92,103
93,93,72
94,94,112
95,95,68
96,96,172
97,97,125
98,98,111
99,99,232
