counter,counter,data
0,0,0
1,1,0
2,2,0
3,3,0
4,4,0
5,5,0
6,6,0
7,7,0
8,8,0
9,9,0
10,10,0
11,11,0
12,12,0
13,13,0
14,14,0
15,15,0
16,16,0
17,17,0
18,18,0
19,19,0
20,20,0
21,21,0
22,22,0
23,23,0
24,24,0
25,25,0
26,26,0
27,27,0
28,28,0
29,29,0
30,30,0
31,31,0
32,32,0
33,33,1
34,34,22
35,35,10
36,36,0
37,37,3
38,38,5
39,39,6
40,40,2
41,41,0
42,42,3
43,43,3
44,44,5
45,45,25
46,46,0
47,47,10
48,48,15
49,49,85
50,50,0
51,51,0
52,52,15
53,53,4
54,54,0
55,55,14
56,56,28
57,57,22
58,58,7
59,59,20
60,60,29
61,61,43
62,62,15
63,63,27
64,64,39
65,65,8
66,66,10
67,67,23
68,68,16
69,69,52
70,70,2
71,71,74
72,72,29
73,73,16
74,74,12
75,75,56
76,76,55
77,77,12
78,78,64
79,79,38
80,80,115
81,81,96
82,82,225
83,83,167
84,84,143
85,85,29
86,86,40
87,87,33
88,88,108
89,89,26
90,90,66
91,91,54
92,92,190
93,93,301
94,94,70
95,95,59
96,96,76
97,97,88
98,98,110
99,99,119
