counter,counter,data
0,0,0
1,1,0
2,2,0
3,3,0
4,4,0
5,5,0
6,6,0
7,7,0
8,8,0
9,9,0
10,10,0
11,11,0
12,12,0
13,13,0
14,14,0
15,15,0
16,16,0
17,17,0
18,18,0
19,19,0
20,20,0
21,21,0
22,22,0
23,23,0
24,24,0
25,25,0
26,26,0
27,27,0
28,28,0
29,29,0
30,30,0
31,31,0
32,32,0
33,33,0
34,34,0
35,35,0
36,36,0
37,37,0
38,38,0
39,39,0
40,40,0
41,41,0
42,42,0
43,43,0
44,44,0
45,45,0
46,46,0
47,47,0
48,48,0
49,49,1
50,50,0
51,51,0
52,52,0
53,53,0
54,54,0
55,55,4
56,56,1
57,57,3
58,58,0
59,59,5
60,60,0
61,61,11
62,62,48
63,63,7
64,64,16
65,65,5
66,66,0
67,67,64
68,68,3
69,69,11
70,70,11
71,71,4
72,72,24
73,73,27
74,74,16
75,75,62
76,76,26
77,77,35
78,78,60
79,79,0
80,80,89
81,81,41
82,82,52
83,83,12
84,84,0
85,85,16
86,86,34
87,87,113
88,88,46
89,89,0
90,90,69
91,91,36
92,92,52
93,93,73
94,94,0
95,95,73
96,96,14
97,97,19
98,98,55
99,99,37
