counter,counter,data
0,0,0
1,1,0
2,2,0
3,3,0
4,4,0
5,5,0
6,6,0
7,7,0
8,8,0
9,9,0
10,10,0
11,11,0
12,12,0
13,13,0
14,14,0
15,15,0
16,16,0
17,17,0
18,18,0
19,19,0
20,20,0
21,21,0
22,22,0
23,23,0
24,24,0
25,25,0
26,26,0
27,27,0
28,28,0
29,29,0
30,30,0
31,31,0
32,32,0
33,33,0
34,34,0
35,35,0
36,36,1
37,37,0
38,38,0
39,39,0
40,40,0
41,41,1
42,42,0
43,43,1
44,44,7
45,45,0
46,46,0
47,47,0
48,48,2
49,49,4
50,50,0
51,51,63
52,52,36
53,53,56
54,54,34
55,55,20
56,56,33
57,57,9
58,58,16
59,59,23
60,60,20
61,61,26
62,62,17
63,63,35
64,64,134
65,65,37
66,66,70
67,67,34
68,68,36
69,69,30
70,70,34
71,71,79
72,72,103
73,73,78
74,74,58
75,75,11
76,76,41
77,77,36
78,78,22
79,79,51
80,80,46
81,81,5
82,82,23
83,83,41
84,84,27
85,85,34
86,86,25
87,87,53
88,88,16
89,89,7
90,90,17
91,91,7
92,92,33
93,93,13
94,94,30
95,95,8
96,96,4
97,97,13
98,98,6
99,99,23
