counter,counter,data
0,0,0
1,1,0
2,2,0
3,3,0
4,4,0
5,5,0
6,6,0
7,7,0
8,8,0
9,9,0
10,10,0
11,11,0
12,12,0
13,13,0
14,14,0
15,15,0
16,16,0
17,17,0
18,18,0
19,19,0
20,20,0
21,21,0
22,22,0
23,23,0
24,24,0
25,25,0
26,26,0
27,27,0
28,28,0
29,29,0
30,30,0
31,31,0
32,32,0
33,33,0
34,34,0
35,35,0
36,36,0
37,37,0
38,38,0
39,39,0
40,40,0
41,41,0
42,42,2
43,43,0
44,44,0
45,45,2
46,46,3
47,47,2
48,48,0
49,49,4
50,50,0
51,51,6
52,52,11
53,53,2
54,54,7
55,55,11
56,56,8
57,57,15
58,58,12
59,59,18
60,60,28
61,61,36
62,62,20
63,63,39
64,64,35
65,65,39
66,66,43
67,67,65
68,68,39
69,69,45
70,70,33
71,71,60
72,72,38
73,73,55
74,74,55
75,75,11
76,76,73
77,77,78
78,78,85
79,79,210
80,80,120
81,81,100
82,82,48
83,83,54
84,84,67
85,85,73
86,86,111
87,87,71
88,88,82
89,89,68
90,90,114
91,91,70
92,92,116
93,93,159
94,94,0
95,95,57
96,96,83
97,97,66
98,98,78
99,99,48
