counter,counter,data
0,0,0
1,1,0
2,2,0
3,3,0
4,4,0
5,5,0
6,6,0
7,7,0
8,8,0
9,9,0
10,10,0
11,11,0
12,12,0
13,13,0
14,14,0
15,15,0
16,16,0
17,17,0
18,18,0
19,19,0
20,20,0
21,21,0
22,22,0
23,23,0
24,24,0
25,25,0
26,26,0
27,27,0
28,28,0
29,29,0
30,30,0
31,31,0
32,32,0
33,33,0
34,34,0
35,35,0
36,36,0
37,37,0
38,38,0
39,39,0
40,40,0
41,41,0
42,42,0
43,43,0
44,44,0
45,45,0
46,46,4
47,47,0
48,48,2
49,49,2
50,50,0
51,51,1
52,52,1
53,53,3
54,54,0
55,55,0
56,56,0
57,57,0
58,58,0
59,59,0
60,60,0
61,61,0
62,62,0
63,63,0
64,64,0
65,65,3
66,66,0
67,67,1
68,68,0
69,69,1
70,70,1
71,71,0
72,72,0
73,73,0
74,74,0
75,75,0
76,76,0
77,77,0
78,78,0
79,79,0
80,80,0
81,81,1
82,82,0
83,83,0
84,84,2
85,85,3
86,86,3
87,87,7
88,88,17
89,89,17
90,90,14
91,91,3
92,92,22
93,93,21
94,94,48
95,95,37
96,96,12
97,97,24
98,98,28
99,99,190
