counter,counter,data
0,0,0
1,1,0
2,2,0
3,3,0
4,4,0
5,5,0
6,6,0
7,7,0
8,8,0
9,9,0
10,10,0
11,11,0
12,12,0
13,13,0
14,14,0
15,15,0
16,16,0
17,17,0
18,18,0
19,19,0
20,20,0
21,21,0
22,22,0
23,23,0
24,24,0
25,25,0
26,26,0
27,27,0
28,28,0
29,29,0
30,30,0
31,31,0
32,32,0
33,33,0
34,34,0
35,35,0
36,36,0
37,37,0
38,38,0
39,39,0
40,40,2
41,41,1
42,42,2
43,43,3
44,44,5
45,45,7
46,46,10
47,47,5
48,48,6
49,49,18
50,50,26
51,51,27
52,52,57
53,53,76
54,54,86
55,55,117
56,56,168
57,57,169
58,58,235
59,59,260
60,60,320
61,61,460
62,62,302
63,63,633
64,64,549
65,65,724
66,66,902
67,67,792
68,68,446
69,69,1035
70,70,808
71,71,783
72,72,852
73,73,638
74,74,754
75,75,452
76,76,712
77,77,699
78,78,815
79,79,1516
80,80,515
81,81,598
82,82,349
83,83,514
84,84,643
85,85,750
86,86,181
87,87,663
88,88,521
89,89,657
90,90,516
91,91,603
92,92,371
93,93,444
94,94,595
95,95,472
96,96,163
97,97,295
98,98,183
99,99,540
