counter,counter,data
0,0,0
1,1,0
2,2,0
3,3,0
4,4,0
5,5,0
6,6,0
7,7,0
8,8,0
9,9,2
10,10,0
11,11,0
12,12,0
13,13,0
14,14,0
15,15,0
16,16,0
17,17,0
18,18,0
19,19,0
20,20,0
21,21,0
22,22,0
23,23,0
24,24,0
25,25,0
26,26,0
27,27,0
28,28,0
29,29,0
30,30,0
31,31,0
32,32,0
33,33,0
34,34,0
35,35,0
36,36,0
37,37,0
38,38,0
39,39,0
40,40,1
41,41,0
42,42,0
43,43,1
44,44,9
45,45,2
46,46,2
47,47,1
48,48,2
49,49,4
50,50,4
51,51,17
52,52,14
53,53,4
54,54,27
55,55,24
56,56,33
57,57,52
58,58,54
59,59,53
60,60,61
61,61,71
62,62,57
63,63,163
64,64,182
65,65,196
66,66,228
67,67,270
68,68,302
69,69,501
70,70,440
71,71,771
72,72,601
73,73,582
74,74,658
75,75,954
76,76,1154
77,77,1175
78,78,1459
79,79,1786
80,80,1667
81,81,2186
82,82,2558
83,83,2774
84,84,3388
85,85,3448
86,86,4070
87,87,4785
88,88,6060
89,89,4268
90,90,5642
91,91,5236
92,92,4774
93,93,5849
94,94,5966
95,95,6361
96,96,6198
97,97,6411
98,98,5841
99,99,7099
