counter,counter,data
0,0,0
1,1,0
2,2,0
3,3,0
4,4,0
5,5,0
6,6,0
7,7,0
8,8,0
9,9,0
10,10,0
11,11,0
12,12,0
13,13,0
14,14,0
15,15,0
16,16,0
17,17,0
18,18,0
19,19,0
20,20,0
21,21,0
22,22,0
23,23,0
24,24,0
25,25,0
26,26,0
27,27,0
28,28,0
29,29,0
30,30,0
31,31,0
32,32,0
33,33,0
34,34,0
35,35,0
36,36,0
37,37,0
38,38,0
39,39,0
40,40,0
41,41,0
42,42,0
43,43,0
44,44,1
45,45,0
46,46,0
47,47,0
48,48,4
49,49,7
50,50,7
51,51,16
52,52,11
53,53,2
54,54,7
55,55,10
56,56,18
57,57,20
58,58,32
59,59,36
60,60,51
61,61,27
62,62,54
63,63,81
64,64,36
65,65,37
66,66,202
67,67,82
68,68,44
69,69,115
70,70,160
71,71,111
72,72,305
73,73,148
74,74,284
75,75,292
76,76,247
77,77,219
78,78,201
79,79,238
80,80,275
81,81,250
82,82,424
83,83,411
84,84,408
85,85,445
86,86,372
87,87,304
88,88,324
89,89,312
90,90,260
91,91,254
92,92,132
93,93,207
94,94,296
95,95,263
96,96,233
97,97,222
98,98,227
99,99,285
