counter,counter,data
0,0,0
1,1,0
2,2,0
3,3,0
4,4,0
5,5,0
6,6,0
7,7,0
8,8,0
9,9,0
10,10,0
11,11,0
12,12,0
13,13,0
14,14,0
15,15,0
16,16,0
17,17,0
18,18,0
19,19,0
20,20,0
21,21,0
22,22,0
23,23,0
24,24,0
25,25,0
26,26,0
27,27,0
28,28,0
29,29,0
30,30,0
31,31,0
32,32,0
33,33,0
34,34,0
35,35,0
36,36,0
37,37,0
38,38,0
39,39,0
40,40,0
41,41,0
42,42,0
43,43,0
44,44,1
45,45,0
46,46,2
47,47,0
48,48,4
49,49,3
50,50,6
51,51,16
52,52,12
53,53,10
54,54,9
55,55,9
56,56,33
57,57,18
58,58,14
59,59,41
60,60,7
61,61,1
62,62,18
63,63,12
64,64,10
65,65,43
66,66,23
67,67,22
68,68,22
69,69,27
70,70,37
71,71,26
72,72,24
73,73,21
74,74,14
75,75,49
76,76,47
77,77,101
78,78,19
79,79,14
80,80,13
81,81,14
82,82,27
83,83,66
84,84,28
85,85,114
86,86,72
87,87,40
88,88,72
89,89,12
90,90,26
91,91,45
92,92,81
93,93,35
94,94,13
95,95,6
96,96,2
97,97,3
98,98,7
99,99,5
