counter,counter,data
0,0,0
1,1,2
2,2,0
3,3,0
4,4,0
5,5,0
6,6,0
7,7,0
8,8,0
9,9,0
10,10,4
11,11,0
12,12,2
13,13,0
14,14,0
15,15,2
16,16,0
17,17,3
18,18,0
19,19,1
20,20,1
21,21,0
22,22,1
23,23,0
24,24,0
25,25,0
26,26,0
27,27,0
28,28,0
29,29,0
30,30,0
31,31,0
32,32,0
33,33,0
34,34,0
35,35,0
36,36,0
37,37,0
38,38,0
39,39,0
40,40,0
41,41,0
42,42,0
43,43,0
44,44,0
45,45,2
46,46,12
47,47,0
48,48,1
49,49,7
50,50,1
51,51,8
52,52,6
53,53,3
54,54,5
55,55,5
56,56,9
57,57,10
58,58,6
59,59,3
60,60,19
61,61,10
62,62,11
63,63,7
64,64,12
65,65,10
66,66,11
67,67,14
68,68,15
69,69,9
70,70,6
71,71,15
72,72,4
73,73,3
74,74,1
75,75,4
76,76,4
77,77,2
78,78,4
79,79,2
80,80,1
81,81,4
82,82,3
83,83,1
84,84,1
85,85,1
86,86,0
87,87,0
88,88,0
89,89,0
90,90,0
91,91,0
92,92,0
93,93,2
94,94,0
95,95,0
96,96,0
97,97,0
98,98,0
99,99,0
